…
## Task 4: Bootstrapping

``` r
# Set a random seed value so we can obtain the same "random" results
set.seed(631)

# Generate the 2000 bootstrap samples
boot_samps <- sim_dat %>% 
  bootstraps(times = 2000)

boot_samps
```

    ## # Bootstrap sampling 
    ## # A tibble: 2,000 × 2
    ##    splits          id           
    ##    <list>          <chr>        
    ##  1 <split [20/8]>  Bootstrap0001
    ##  2 <split [20/6]>  Bootstrap0002
    ##  3 <split [20/6]>  Bootstrap0003
    ##  4 <split [20/6]>  Bootstrap0004
    ##  5 <split [20/10]> Bootstrap0005
    ##  6 <split [20/10]> Bootstrap0006
    ##  7 <split [20/7]>  Bootstrap0007
    ##  8 <split [20/6]>  Bootstrap0008
    ##  9 <split [20/8]>  Bootstrap0009
    ## 10 <split [20/6]>  Bootstrap0010
    ## # … with 1,990 more rows
…
# Fit the model to each split and store the information
# Also, obtain the tidy model information
boot_models <- boot_samps %>% 
  mutate(
    model = map(splits, fit_mlr_boots),
    coef_info = map(model, tidy)
    )

boots_coefs <- boot_models %>% 
  unnest(coef_info)

boots_coefs
```

    ## # A tibble: 8,000 × 8
    ##    splits         id            model  term     estim…¹ std.e…² stati…³  p.value
    ##    <list>         <chr>         <list> <chr>      <dbl>   <dbl>   <dbl>    <dbl>
    ##  1 <split [20/8]> Bootstrap0001 <lm>   (Interc…   1.72  0.331      5.19 8.99e- 5
    ##  2 <split [20/8]> Bootstrap0001 <lm>   x1         0.336 0.0500     6.72 4.89e- 6
    ##  3 <split [20/8]> Bootstrap0001 <lm>   x2        -0.518 0.00573  -90.3  4.24e-23
    ##  4 <split [20/8]> Bootstrap0001 <lm>   x3Yes      1.61  0.225      7.18 2.20e- 6
    ##  5 <split [20/6]> Bootstrap0002 <lm>   (Interc…   1.31  0.443      2.95 9.32e- 3
    ##  6 <split [20/6]> Bootstrap0002 <lm>   x1         0.177 0.0742     2.38 2.99e- 2
    ##  7 <split [20/6]> Bootstrap0002 <lm>   x2        -0.512 0.00765  -66.9  5.13e-21
    ##  8 <split [20/6]> Bootstrap0002 <lm>   x3Yes      2.09  0.356      5.88 2.35e- 5
    ##  9 <split [20/6]> Bootstrap0003 <lm>   (Interc…   1.21  0.440      2.74 1.44e- 2
    ## 10 <split [20/6]> Bootstrap0003 <lm>   x1         0.270 0.0734     3.68 2.02e- 3
    ## # … with 7,990 more rows, and abbreviated variable names ¹​estimate, ²​std.error,
    ## #   ³​statistic
…
